t0 ;         0.00
t1 ;         0.00
t2 ;         0.00
t3 ;         0.00
t4 ;         0.00
t5 ;         1.00
t6 ;         2.00
t7 ;         0.00
t8 ;         0.00
t9 ;         0.00
t10 ;         0.00
t11 ;         0.00
t12 ;         1.00
t13 ;         0.00
t14 ;         0.00
t15 ;         0.00
